{
    "CTime": [
        2849,
        1400,
        1940,
        2595,
        2710,
        170,
        1370,
        2050,
        2600,
        2023,
        1830,
        0,
        0,
        0,
        0,
        2023
    ],
    "CtimeDelay": [
        756,
        1827,
        1778,
        1683,
        1682,
        1240,
        1660,
        1682,
        1683,
        1711,
        1520,
        0,
        0,
        0,
        0,
        10110
    ],
    "HScaleRecLenSamRat": "2.0E-7,2.5E9,5000",
    "NoOfFrames": [
        84,
        100,
        75,
        100,
        150,
        150,
        150,
        150,
        150,
        400,
        150,
        0,
        0,
        0,
        0,
        2
    ],
    "beamChannel": 2,
    "beamOffset": 1.0,
    "beamVPosition": 1.0,
    "beamVScale": 0.5,
    "cycleName": "CPS.USER.MD1",
    "enable": [
        true,
        true,
        true,
        true,
        true,
        true,
        true,
        true,
        true,
        true,
        true,
        false,
        false,
        false,
        false,
        false
    ],
    "fastFrameFrameCount": 1659,
    "fastFrameReferenceFrame": 1,
    "gpib_address": "gpib0,1",
    "horizontalMainPos": 60,
    "horizontalPosition": 50,
    "ip_address": "128.141.96.67",
    "timeout": 40000,
    "triggerChannel": 1,
    "triggerHPosition": 24,
    "triggerVPosition": -2,
    "triggerVScale": 1.4,
    "turnDistance": [
        5,
        4,
        6,
        20,
        400,
        5,
        5,
        1582,
        352,
        400,
        185,
        0,
        0,
        0,
        0,
        2
    ]
}
