{
    "CTime": [
        200,
        350,
        811,
        170,
        834,
        305,
        425,
        0,
        0,
        0,
        0,
        0,
        0,
        0,
        0,
        0
    ],
    "CtimeDelay": [
        1010,
        950,
        0,
        1880,
        0,
        884,
        853,
        0,
        0,
        0,
        0,
        0,
        0,
        0,
        0,
        0
    ],
    "HScaleRecLenSamRat": "2.0E-7,2.5E9,5000",
    "NoOfFrames": [
        100,
        80,
        100,
        150,
        175,
        80,
        100,
        0,
        0,
        0,
        0,
        0,
        0,
        0,
        0,
        0
    ],
    "beamChannel": 2,
    "beamOffset": 1.0,
    "beamVPosition": 1.0,
    "beamVScale": 0.02,
    "cycleName": "CPS.USER.SFTPRO1",
    "enable": [
        true,
        true,
        true,
        true,
        true,
        true,
        true,
        false,
        false,
        false,
        false,
        false,
        false,
        false,
        false,
        false
    ],
    "fastFrameFrameCount": 785,
    "fastFrameReferenceFrame": 1,
    "gpib_address": "gpib0,1",
    "horizontalMainPos": 60,
    "horizontalPosition": 50,
    "ip_address": "128.141.96.67",
    "timeout": 40000,
    "triggerChannel": 1,
    "triggerHPosition": 24,
    "triggerVPosition": -2,
    "triggerVScale": 1.4,
    "turnDistance": [
        4,
        8,
        120,
        5,
        3,
        146,
        50,
        0,
        0,
        0,
        0,
        0,
        0,
        0,
        0,
        0
    ]
}
