{
    "CTime": [
        692,
        694,
        200,
        690,
        200,
        170,
        340,
        314,
        0,
        0,
        0,
        0,
        0,
        0,
        0,
        0
    ],
    "CtimeDelay": [
        615,
        619,
        726,
        612,
        1030,
        730,
        585,
        608,
        0,
        0,
        0,
        0,
        0,
        0,
        0,
        0
    ],
    "HScaleRecLenSamRat": "2.0E-7,2.5E9,5000",
    "NoOfFrames": [
        150,
        100,
        100,
        100,
        50,
        150,
        150,
        100,
        0,
        0,
        0,
        0,
        0,
        0,
        0,
        0
    ],
    "beamChannel": 2,
    "beamOffset": 1.0,
    "beamVPosition": 1.0,
    "beamVScale": 0.02,
    "cycleName": "CPS.USER.TOF",
    "enable": [
        true,
        true,
        true,
        true,
        true,
        true,
        true,
        true,
        false,
        false,
        false,
        false,
        false,
        false,
        false,
        false
    ],
    "fastFrameFrameCount": 900,
    "fastFrameReferenceFrame": 1,
    "gpib_address": "gpib0,1",
    "horizontalMainPos": 60,
    "horizontalPosition": 50,
    "ip_address": "128.141.96.67",
    "timeout": 40000,
    "triggerChannel": 1,
    "triggerHPosition": 24,
    "triggerVPosition": -2,
    "triggerVScale": 1.4,
    "turnDistance": [
        10,
        5,
        3,
        12,
        10,
        5,
        1000,
        50,
        0,
        0,
        0,
        0,
        0,
        0,
        0,
        0
    ]
}
